^QtGuiApplication1.h
G:\Programy c++\QtGuiApplication1\QtGuiApplication1\GeneratedFiles\Release\moc_QtGuiApplication1.cpp
^G:\Programy c++\QtGuiApplication1\QtGuiApplication1\QtGuiApplication1.vcxproj
G:\Programy c++\QtGuiApplication1\QtGuiApplication1\Release\ResourceHandlingTask.state
G:\Programy c++\QtGuiApplication1\QtGuiApplication1\Release\QtGuiApplication1.vcxproj.GenerateResource.Cache
G:\Programy c++\QtGuiApplication1\QtGuiApplication1\Release\priconfig.xml
G:\Programy c++\QtGuiApplication1\QtGuiApplication1\Release\priconfig.xml.intermediate
G:\Programy c++\QtGuiApplication1\QtGuiApplication1\Release\layout.resfiles
G:\Programy c++\QtGuiApplication1\QtGuiApplication1\Release\layout.resfiles.intermediate
G:\Programy c++\QtGuiApplication1\QtGuiApplication1\Release\resources.resfiles
G:\Programy c++\QtGuiApplication1\QtGuiApplication1\Release\resources.resfiles.intermediate
G:\Programy c++\QtGuiApplication1\QtGuiApplication1\Release\pri.resfiles
G:\Programy c++\QtGuiApplication1\QtGuiApplication1\Release\pri.resfiles.intermediate
G:\Programy c++\QtGuiApplication1\Win32\Release\resources.pri
G:\Programy c++\QtGuiApplication1\QtGuiApplication1\Release\qualifiers.txt
G:\Programy c++\QtGuiApplication1\QtGuiApplication1\Release\qualifiers.txt.intermediate
G:\Programy c++\QtGuiApplication1\QtGuiApplication1\Release\MultipleQualifiersPerDimensionFound.txt
G:\Programy c++\QtGuiApplication1\QtGuiApplication1\Release\ProjectArchitectures.txt
G:\Programy c++\QtGuiApplication1\Win32\Release\AppxManifest.xml
G:\Programy c++\QtGuiApplication1\Win32\Release\QtGuiApplication1.build.appxrecipe
^QtGuiApplication1.h
G:\Programy c++\QtGuiApplication1\QtGuiApplication1\GeneratedFiles\Release\moc_QtGuiApplication1.cpp
^G:\Programy c++\QtGuiApplication1\QtGuiApplication1\QtGuiApplication1.vcxproj
G:\Programy c++\QtGuiApplication1\QtGuiApplication1\Release\ResourceHandlingTask.state
G:\Programy c++\QtGuiApplication1\QtGuiApplication1\Release\QtGuiApplication1.vcxproj.GenerateResource.Cache
G:\Programy c++\QtGuiApplication1\QtGuiApplication1\Release\priconfig.xml
G:\Programy c++\QtGuiApplication1\QtGuiApplication1\Release\priconfig.xml.intermediate
G:\Programy c++\QtGuiApplication1\QtGuiApplication1\Release\layout.resfiles
G:\Programy c++\QtGuiApplication1\QtGuiApplication1\Release\layout.resfiles.intermediate
G:\Programy c++\QtGuiApplication1\QtGuiApplication1\Release\resources.resfiles
G:\Programy c++\QtGuiApplication1\QtGuiApplication1\Release\resources.resfiles.intermediate
G:\Programy c++\QtGuiApplication1\QtGuiApplication1\Release\pri.resfiles
G:\Programy c++\QtGuiApplication1\QtGuiApplication1\Release\pri.resfiles.intermediate
G:\Programy c++\QtGuiApplication1\Win32\Release\resources.pri
G:\Programy c++\QtGuiApplication1\QtGuiApplication1\Release\qualifiers.txt
G:\Programy c++\QtGuiApplication1\QtGuiApplication1\Release\qualifiers.txt.intermediate
G:\Programy c++\QtGuiApplication1\QtGuiApplication1\Release\MultipleQualifiersPerDimensionFound.txt
G:\Programy c++\QtGuiApplication1\QtGuiApplication1\Release\ProjectArchitectures.txt
G:\Programy c++\QtGuiApplication1\Win32\Release\AppxManifest.xml
G:\Programy c++\QtGuiApplication1\Win32\Release\QtGuiApplication1.build.appxrecipe
