^G:\PROGRAMY C++\QTGUIAPPLICATION1\QTGUIAPPLICATION1\GENERATEDFILES\QRC_QTGUIAPPLICATION1.CPP
/c /I.\GENERATEDFILES /I. /IG:\QT\5.10.1\WINRT_X86_MSVC2017\INCLUDE /I.\GENERATEDFILES\DEBUG /IG:\QT\5.10.1\WINRT_X86_MSVC2017\INCLUDE\QTCORE /IG:\QT\5.10.1\WINRT_X86_MSVC2017\INCLUDE\QTGUI /IG:\QT\5.10.1\WINRT_X86_MSVC2017\INCLUDE\QTANGLE /IG:\QT\5.10.1\WINRT_X86_MSVC2017\INCLUDE\QTWIDGETS /I"G:\PROGRAMY C++\QTGUIAPPLICATION1\QTGUIAPPLICATION1\\" /I"GENERATED FILES\\" /IDEBUG\ /Zi /nologo /W3 /WX- /diagnostics:classic /sdl /Od /Oi /Oy- /D UNICODE /D WIN32 /D QT_LARGEFILE_SUPPORT /D Q_BYTE_ORDER=Q_LITTLE_ENDIAN /D WINAPI_FAMILY=WINAPI_FAMILY_PC_APP /D WINAPI_PARTITION_PHONE_APP=1 /D X86 /D __X86__ /D __x86__ /D QT_DLL /D QT_CORE_LIB /D QT_GUI_LIB /D QT_WIDGETS_LIB /D _UNICODE /D UNICODE /D WINAPI_FAMILY=WINAPI_FAMILY_APP /D __WRL_NO_DEFAULT_LIB__ /Gm- /EHsc /MDd /GS /Gy /fp:precise /Zc:wchar_t /Zc:forScope /Zc:inline /GR /Fo"DEBUG\\" /Fd"DEBUG\VC141.PDB" /Gd /TP /FU"C:\PROGRAM FILES (X86)\MICROSOFT VISUAL STUDIO\2017\COMMUNITY\VC\TOOLS\MSVC\14.13.26128\LIB\X86\STORE\REFERENCES\PLATFORM.WINMD" /analyze- /FC G:\PROGRAMY C++\QTGUIAPPLICATION1\QTGUIAPPLICATION1\GENERATEDFILES\QRC_QTGUIAPPLICATION1.CPP
^G:\PROGRAMY C++\QTGUIAPPLICATION1\QTGUIAPPLICATION1\KONWERTER.CPP
/c /I.\GENERATEDFILES /I. /IG:\QT\5.10.1\WINRT_X86_MSVC2017\INCLUDE /I.\GENERATEDFILES\DEBUG /IG:\QT\5.10.1\WINRT_X86_MSVC2017\INCLUDE\QTCORE /IG:\QT\5.10.1\WINRT_X86_MSVC2017\INCLUDE\QTGUI /IG:\QT\5.10.1\WINRT_X86_MSVC2017\INCLUDE\QTANGLE /IG:\QT\5.10.1\WINRT_X86_MSVC2017\INCLUDE\QTWIDGETS /I"G:\PROGRAMY C++\QTGUIAPPLICATION1\QTGUIAPPLICATION1\\" /I"GENERATED FILES\\" /IDEBUG\ /Zi /nologo /W3 /WX- /diagnostics:classic /sdl /Od /Oi /Oy- /D UNICODE /D WIN32 /D QT_LARGEFILE_SUPPORT /D Q_BYTE_ORDER=Q_LITTLE_ENDIAN /D WINAPI_FAMILY=WINAPI_FAMILY_PC_APP /D WINAPI_PARTITION_PHONE_APP=1 /D X86 /D __X86__ /D __x86__ /D QT_DLL /D QT_CORE_LIB /D QT_GUI_LIB /D QT_WIDGETS_LIB /D _UNICODE /D UNICODE /D WINAPI_FAMILY=WINAPI_FAMILY_APP /D __WRL_NO_DEFAULT_LIB__ /Gm- /EHsc /MDd /GS /Gy /fp:precise /Zc:wchar_t /Zc:forScope /Zc:inline /GR /Fo"DEBUG\\" /Fd"DEBUG\VC141.PDB" /Gd /TP /FU"C:\PROGRAM FILES (X86)\MICROSOFT VISUAL STUDIO\2017\COMMUNITY\VC\TOOLS\MSVC\14.13.26128\LIB\X86\STORE\REFERENCES\PLATFORM.WINMD" /analyze- /FC G:\PROGRAMY C++\QTGUIAPPLICATION1\QTGUIAPPLICATION1\KONWERTER.CPP
^G:\PROGRAMY C++\QTGUIAPPLICATION1\QTGUIAPPLICATION1\GENERATEDFILES\DEBUG\MOC_QTGUIAPPLICATION1.CPP
/c /I.\GENERATEDFILES /I. /IG:\QT\5.10.1\WINRT_X86_MSVC2017\INCLUDE /I.\GENERATEDFILES\DEBUG /IG:\QT\5.10.1\WINRT_X86_MSVC2017\INCLUDE\QTCORE /IG:\QT\5.10.1\WINRT_X86_MSVC2017\INCLUDE\QTGUI /IG:\QT\5.10.1\WINRT_X86_MSVC2017\INCLUDE\QTANGLE /IG:\QT\5.10.1\WINRT_X86_MSVC2017\INCLUDE\QTWIDGETS /I"G:\PROGRAMY C++\QTGUIAPPLICATION1\QTGUIAPPLICATION1\\" /I"GENERATED FILES\\" /IDEBUG\ /Zi /nologo /W3 /WX- /diagnostics:classic /sdl /Od /Oi /Oy- /D UNICODE /D WIN32 /D QT_LARGEFILE_SUPPORT /D Q_BYTE_ORDER=Q_LITTLE_ENDIAN /D WINAPI_FAMILY=WINAPI_FAMILY_PC_APP /D WINAPI_PARTITION_PHONE_APP=1 /D X86 /D __X86__ /D __x86__ /D QT_DLL /D QT_CORE_LIB /D QT_GUI_LIB /D QT_WIDGETS_LIB /D _UNICODE /D UNICODE /D WINAPI_FAMILY=WINAPI_FAMILY_APP /D __WRL_NO_DEFAULT_LIB__ /Gm- /EHsc /MDd /GS /Gy /fp:precise /Zc:wchar_t /Zc:forScope /Zc:inline /GR /Fo"DEBUG\\" /Fd"DEBUG\VC141.PDB" /Gd /TP /FU"C:\PROGRAM FILES (X86)\MICROSOFT VISUAL STUDIO\2017\COMMUNITY\VC\TOOLS\MSVC\14.13.26128\LIB\X86\STORE\REFERENCES\PLATFORM.WINMD" /analyze- /FC G:\PROGRAMY C++\QTGUIAPPLICATION1\QTGUIAPPLICATION1\GENERATEDFILES\DEBUG\MOC_QTGUIAPPLICATION1.CPP
^G:\PROGRAMY C++\QTGUIAPPLICATION1\QTGUIAPPLICATION1\MAIN.CPP
/c /I.\GENERATEDFILES /I. /IG:\QT\5.10.1\WINRT_X86_MSVC2017\INCLUDE /I.\GENERATEDFILES\DEBUG /IG:\QT\5.10.1\WINRT_X86_MSVC2017\INCLUDE\QTCORE /IG:\QT\5.10.1\WINRT_X86_MSVC2017\INCLUDE\QTGUI /IG:\QT\5.10.1\WINRT_X86_MSVC2017\INCLUDE\QTANGLE /IG:\QT\5.10.1\WINRT_X86_MSVC2017\INCLUDE\QTWIDGETS /I"G:\PROGRAMY C++\QTGUIAPPLICATION1\QTGUIAPPLICATION1\\" /I"GENERATED FILES\\" /IDEBUG\ /Zi /nologo /W3 /WX- /diagnostics:classic /sdl /Od /Oi /Oy- /D UNICODE /D WIN32 /D QT_LARGEFILE_SUPPORT /D Q_BYTE_ORDER=Q_LITTLE_ENDIAN /D WINAPI_FAMILY=WINAPI_FAMILY_PC_APP /D WINAPI_PARTITION_PHONE_APP=1 /D X86 /D __X86__ /D __x86__ /D QT_DLL /D QT_CORE_LIB /D QT_GUI_LIB /D QT_WIDGETS_LIB /D _UNICODE /D UNICODE /D WINAPI_FAMILY=WINAPI_FAMILY_APP /D __WRL_NO_DEFAULT_LIB__ /Gm- /EHsc /MDd /GS /Gy /fp:precise /Zc:wchar_t /Zc:forScope /Zc:inline /GR /Fo"DEBUG\\" /Fd"DEBUG\VC141.PDB" /Gd /TP /FU"C:\PROGRAM FILES (X86)\MICROSOFT VISUAL STUDIO\2017\COMMUNITY\VC\TOOLS\MSVC\14.13.26128\LIB\X86\STORE\REFERENCES\PLATFORM.WINMD" /analyze- /FC G:\PROGRAMY C++\QTGUIAPPLICATION1\QTGUIAPPLICATION1\MAIN.CPP
^G:\PROGRAMY C++\QTGUIAPPLICATION1\QTGUIAPPLICATION1\QTGUIAPPLICATION1.CPP
/c /I.\GENERATEDFILES /I. /IG:\QT\5.10.1\WINRT_X86_MSVC2017\INCLUDE /I.\GENERATEDFILES\DEBUG /IG:\QT\5.10.1\WINRT_X86_MSVC2017\INCLUDE\QTCORE /IG:\QT\5.10.1\WINRT_X86_MSVC2017\INCLUDE\QTGUI /IG:\QT\5.10.1\WINRT_X86_MSVC2017\INCLUDE\QTANGLE /IG:\QT\5.10.1\WINRT_X86_MSVC2017\INCLUDE\QTWIDGETS /I"G:\PROGRAMY C++\QTGUIAPPLICATION1\QTGUIAPPLICATION1\\" /I"GENERATED FILES\\" /IDEBUG\ /Zi /nologo /W3 /WX- /diagnostics:classic /sdl /Od /Oi /Oy- /D UNICODE /D WIN32 /D QT_LARGEFILE_SUPPORT /D Q_BYTE_ORDER=Q_LITTLE_ENDIAN /D WINAPI_FAMILY=WINAPI_FAMILY_PC_APP /D WINAPI_PARTITION_PHONE_APP=1 /D X86 /D __X86__ /D __x86__ /D QT_DLL /D QT_CORE_LIB /D QT_GUI_LIB /D QT_WIDGETS_LIB /D _UNICODE /D UNICODE /D WINAPI_FAMILY=WINAPI_FAMILY_APP /D __WRL_NO_DEFAULT_LIB__ /Gm- /EHsc /MDd /GS /Gy /fp:precise /Zc:wchar_t /Zc:forScope /Zc:inline /GR /Fo"DEBUG\\" /Fd"DEBUG\VC141.PDB" /Gd /TP /FU"C:\PROGRAM FILES (X86)\MICROSOFT VISUAL STUDIO\2017\COMMUNITY\VC\TOOLS\MSVC\14.13.26128\LIB\X86\STORE\REFERENCES\PLATFORM.WINMD" /analyze- /FC G:\PROGRAMY C++\QTGUIAPPLICATION1\QTGUIAPPLICATION1\QTGUIAPPLICATION1.CPP
