^G:\PROGRAMY C++\QTGUIAPPLICATION1\QTGUIAPPLICATION1\GENERATEDFILES\QRC_QTGUIAPPLICATION1.CPP|G:\PROGRAMY C++\QTGUIAPPLICATION1\QTGUIAPPLICATION1\MAIN.CPP|G:\PROGRAMY C++\QTGUIAPPLICATION1\QTGUIAPPLICATION1\QTGUIAPPLICATION1.CPP
G:\PROGRAMY C++\QTGUIAPPLICATION1\QTGUIAPPLICATION1\DEBUG\QRC_QTGUIAPPLICATION1.OBJ
G:\PROGRAMY C++\QTGUIAPPLICATION1\QTGUIAPPLICATION1\DEBUG\QTGUIAPPLICATION1.OBJ
G:\PROGRAMY C++\QTGUIAPPLICATION1\QTGUIAPPLICATION1\DEBUG\MAIN.OBJ
^G:\PROGRAMY C++\QTGUIAPPLICATION1\QTGUIAPPLICATION1\MAIN.CPP|G:\PROGRAMY C++\QTGUIAPPLICATION1\QTGUIAPPLICATION1\QTGUIAPPLICATION1.CPP
G:\PROGRAMY C++\QTGUIAPPLICATION1\QTGUIAPPLICATION1\DEBUG\MAIN.OBJ
G:\PROGRAMY C++\QTGUIAPPLICATION1\QTGUIAPPLICATION1\DEBUG\QTGUIAPPLICATION1.OBJ
^G:\PROGRAMY C++\QTGUIAPPLICATION1\QTGUIAPPLICATION1\GENERATEDFILES\DEBUG\MOC_QTGUIAPPLICATION1.CPP|G:\PROGRAMY C++\QTGUIAPPLICATION1\QTGUIAPPLICATION1\GENERATEDFILES\QRC_QTGUIAPPLICATION1.CPP|G:\PROGRAMY C++\QTGUIAPPLICATION1\QTGUIAPPLICATION1\KONWERTER.CPP|G:\PROGRAMY C++\QTGUIAPPLICATION1\QTGUIAPPLICATION1\MAIN.CPP|G:\PROGRAMY C++\QTGUIAPPLICATION1\QTGUIAPPLICATION1\QTGUIAPPLICATION1.CPP
G:\PROGRAMY C++\QTGUIAPPLICATION1\QTGUIAPPLICATION1\DEBUG\QRC_QTGUIAPPLICATION1.OBJ
^G:\PROGRAMY C++\QTGUIAPPLICATION1\QTGUIAPPLICATION1\GENERATEDFILES\QRC_QTGUIAPPLICATION1.CPP
G:\PROGRAMY C++\QTGUIAPPLICATION1\QTGUIAPPLICATION1\DEBUG\QRC_QTGUIAPPLICATION1.OBJ
^G:\PROGRAMY C++\QTGUIAPPLICATION1\QTGUIAPPLICATION1\GENERATEDFILES\DEBUG\MOC_QTGUIAPPLICATION1.CPP|G:\PROGRAMY C++\QTGUIAPPLICATION1\QTGUIAPPLICATION1\KONWERTER.CPP|G:\PROGRAMY C++\QTGUIAPPLICATION1\QTGUIAPPLICATION1\MAIN.CPP|G:\PROGRAMY C++\QTGUIAPPLICATION1\QTGUIAPPLICATION1\QTGUIAPPLICATION1.CPP
G:\PROGRAMY C++\QTGUIAPPLICATION1\QTGUIAPPLICATION1\DEBUG\KONWERTER.OBJ
^G:\PROGRAMY C++\QTGUIAPPLICATION1\QTGUIAPPLICATION1\KONWERTER.CPP|G:\PROGRAMY C++\QTGUIAPPLICATION1\QTGUIAPPLICATION1\QTGUIAPPLICATION1.CPP
G:\PROGRAMY C++\QTGUIAPPLICATION1\QTGUIAPPLICATION1\DEBUG\KONWERTER.OBJ
G:\PROGRAMY C++\QTGUIAPPLICATION1\QTGUIAPPLICATION1\DEBUG\QTGUIAPPLICATION1.OBJ
^G:\PROGRAMY C++\QTGUIAPPLICATION1\QTGUIAPPLICATION1\KONWERTER.CPP
G:\PROGRAMY C++\QTGUIAPPLICATION1\QTGUIAPPLICATION1\DEBUG\VC141.PDB
^G:\PROGRAMY C++\QTGUIAPPLICATION1\QTGUIAPPLICATION1\GENERATEDFILES\DEBUG\MOC_QTGUIAPPLICATION1.CPP|G:\PROGRAMY C++\QTGUIAPPLICATION1\QTGUIAPPLICATION1\MAIN.CPP|G:\PROGRAMY C++\QTGUIAPPLICATION1\QTGUIAPPLICATION1\QTGUIAPPLICATION1.CPP
G:\PROGRAMY C++\QTGUIAPPLICATION1\QTGUIAPPLICATION1\DEBUG\MOC_QTGUIAPPLICATION1.OBJ
G:\PROGRAMY C++\QTGUIAPPLICATION1\QTGUIAPPLICATION1\DEBUG\QTGUIAPPLICATION1.OBJ
G:\PROGRAMY C++\QTGUIAPPLICATION1\QTGUIAPPLICATION1\DEBUG\MAIN.OBJ
^G:\PROGRAMY C++\QTGUIAPPLICATION1\QTGUIAPPLICATION1\GENERATEDFILES\DEBUG\MOC_QTGUIAPPLICATION1.CPP
G:\PROGRAMY C++\QTGUIAPPLICATION1\QTGUIAPPLICATION1\DEBUG\VC141.PDB
^G:\PROGRAMY C++\QTGUIAPPLICATION1\QTGUIAPPLICATION1\MAIN.CPP
G:\PROGRAMY C++\QTGUIAPPLICATION1\QTGUIAPPLICATION1\DEBUG\VC141.PDB
^G:\PROGRAMY C++\QTGUIAPPLICATION1\QTGUIAPPLICATION1\QTGUIAPPLICATION1.CPP
G:\PROGRAMY C++\QTGUIAPPLICATION1\QTGUIAPPLICATION1\DEBUG\VC141.PDB
G:\PROGRAMY C++\QTGUIAPPLICATION1\QTGUIAPPLICATION1\DEBUG\QTGUIAPPLICATION1.OBJ
